<?xml version="1.0" encoding="utf-8"?>
<!-- Generator: Adobe Illustrator 24.0.0, SVG Export Plug-In . SVG Version: 6.00 Build 0)  -->
<svg version="1.1" id="Layer_1" xmlns="http://www.w3.org/2000/svg" xmlns:xlink="http://www.w3.org/1999/xlink" x="0px" y="0px"
	 viewBox="0 0 1224 792" style="enable-background:new 0 0 1224 792;" xml:space="preserve">
<style type="text/css">
	.st0{fill:#EE6E59;}
</style>
<g>
	<path class="st0" d="M656.5,438.3l1,20.5l17.6-3.9l-9.6-113.2l-22.9,6.1L633.7,464l15.6-3.4l1-20.9L656.5,438.3z M653.5,378.5
		l2.1,43.1l-4.3,1L653.5,378.5z"/>
	<path class="st0" d="M717.4,371.8v-26.5c0-9.5-4.2-17.7-18.6-13.7l-2.4,0.7c-14.3,3.9-19.2,14.6-19.2,25.3v78.8
		c0,10.3,4.6,18.1,14.2,16l0.4-0.1c6.2-1.4,9.9-6.5,12.3-11.3c0.6,1.3,1.4,5.3,1.9,7l12.2-2.8v-69.4l-20.9,5.3v15.2l3.7-0.9v34.9
		c0,2.4-0.9,3.8-2.6,4.2c-1.7,0.4-2.6-0.7-2.6-3v-79.8c0-2,0.7-3.2,2-3.5c1.7-0.5,2.1,0.5,2.1,2.4v25.5L717.4,371.8z"/>
	<polygon class="st0" points="753.9,336 753.9,317.7 722.4,326.2 722.4,444.3 754.3,437.2 754.3,418.5 740.2,421.7 740.2,387.3 
		751.3,384.6 751.3,365.6 740.2,368.4 740.2,339.5 	"/>
	<polygon class="st0" points="609.1,519 761.1,488.2 761.1,469.2 609.1,501.1 	"/>
	<polygon class="st0" points="609.1,306.2 609.1,324.1 761.1,280.7 761.1,261.7 	"/>
	<path class="st0" d="M505.3,412v-28.3c0-10.5-5-16-16.7-12.8l-2.8,0.8c-12.6,3.4-17.6,12.8-17.6,23.8v68.2c0,12.4,5,18.5,17.7,15.8
		l2.6-0.6c11.8-2.6,16.7-12.3,16.7-21.9v-31.6l-16.4,4v30.9c0,1.7-0.3,3.1-1.7,3.4c-1.2,0.3-1.7-0.6-1.7-2.6v-71.5
		c0-1.9,0.5-2.8,1.7-3.2c1.5-0.4,1.7,0.5,1.7,2.3v27.5L505.3,412z"/>
	<path class="st0" d="M529.6,359.5l-2.6,0.7c-12.6,3.5-17.8,12.9-17.8,26.1v67.2c0,13.2,6.2,19.4,17.8,16.8l2.8-0.6
		c11-2.5,17.7-11.5,17.7-25.1v-68.6C547.4,363,542.2,356,529.6,359.5z M530.3,450.3c0,1.9-0.7,3.1-2,3.4c-1.2,0.3-1.9-0.6-1.9-2.5
		v-71.5c0-2.2,0.7-3.4,1.9-3.7c1.3-0.4,2,0.5,2,2.7V450.3z"/>
	<path class="st0" d="M551.4,354.4v92.5c0,9.7,4.8,17,17.6,14.1l2.6-0.6c12-2.8,17.6-12.8,17.6-22.5v-94.3l-17.1,4.9v91.3
		c0,1.9-0.7,3-1.9,3.3c-1.2,0.3-1.7-0.5-1.7-2.4v-91.1L551.4,354.4z"/>
	<path class="st0" d="M593.2,342.5v111.7l15.9-3.7v-30.7l1.6-0.3c1.7-0.4,2,0.4,2,2.1v42.3c0,2.1,0.4,3.5,1.1,4.5l17.9-3.8V464
		c-0.6-0.9-0.9-2.6-0.9-4.9V414c0-6-3.7-8.3-6.7-8.9c3-2.1,6.4-6,6.4-13.8v-27.5c0-9.3-5-12.3-11.3-10.6l-10.2,2.6v-18L593.2,342.5z
		 M609.6,370.1l2.1-0.5c1.6-0.4,1.9,0.3,1.9,2.1v28.6c0,1.7-0.7,2.7-2,3.1l-2,0.4L609.6,370.1L609.6,370.1z"/>
	<polygon class="st0" points="609.1,483.1 462.9,513.7 462.9,530.3 609.1,501 	"/>
	<polygon class="st0" points="609.1,288.3 462.9,332.8 462.9,349.4 609.1,306.2 	"/>
</g>
</svg>
